{
	"info": {
		"_postman_id": "7faa8548-9d1e-4e70-bb84-6ae4ebd06cde",
		"name": "CourseBookingAPI",
		"schema": "https://schema.getpostman.com/json/collection/v2.1.0/collection.json",
		"_exporter_id": "27689114"
	},
	"item": [
		{
			"name": "POST userRegistration",
			"request": {
				"method": "POST",
				"header": [],
				"body": {
					"mode": "raw",
					"raw": "{\r\n    \"firstName\": \"admin\",\r\n    \"lastName\": \"admin\",\r\n    \"email\": \"cross@gmail.com\",\r\n    \"password\": \"ssap\",\r\n    \"mobileNo\": \"09123456789\",\r\n    \"isAdmin\": false\r\n}",
					"options": {
						"raw": {
							"language": "json"
						}
					}
				},
				"url": {
					"raw": "localhost:4001/user/register",
					"host": [
						"localhost"
					],
					"port": "4001",
					"path": [
						"user",
						"register"
					]
				}
			},
			"response": []
		},
		{
			"name": "GET login User",
			"protocolProfileBehavior": {
				"disableBodyPruning": true
			},
			"request": {
				"method": "GET",
				"header": [],
				"body": {
					"mode": "raw",
					"raw": "{\r\n    \"email\": \"cross@gmail.com\",\r\n    \"password\": \"ssap\"\r\n}",
					"options": {
						"raw": {
							"language": "json"
						}
					}
				},
				"url": {
					"raw": "localhost:4001/user/login",
					"host": [
						"localhost"
					],
					"port": "4001",
					"path": [
						"user",
						"login"
					]
				}
			},
			"response": []
		},
		{
			"name": "GET profile",
			"protocolProfileBehavior": {
				"disableBodyPruning": true
			},
			"request": {
				"auth": {
					"type": "bearer",
					"bearer": [
						{
							"key": "token",
							"value": "eyJhbGciOiJIUzI1NiIsInR5cCI6IkpXVCJ9.eyJpZCI6IjY0N2FlOGZiN2FkYTliYjgzM2ZlOGU0YSIsImlzQWRtaW4iOmZhbHNlLCJlbWFpbCI6ImNyb3NzQGdtYWlsLmNvbSIsImlhdCI6MTY4NTc3NjY1MX0.LI5uuT6ubE9Xf01yV4jxQKwRrn76MTMJS75QrZpXPIU",
							"type": "string"
						}
					]
				},
				"method": "GET",
				"header": [],
				"body": {
					"mode": "raw",
					"raw": "{\r\n    \"id\": \"647acadae8f6e4276bc8a3f8\"\r\n}",
					"options": {
						"raw": {
							"language": "json"
						}
					}
				},
				"url": {
					"raw": "localhost:4001/user/details",
					"host": [
						"localhost"
					],
					"port": "4001",
					"path": [
						"user",
						"details"
					]
				}
			},
			"response": []
		},
		{
			"name": "POST addcourse",
			"request": {
				"auth": {
					"type": "bearer",
					"bearer": [
						{
							"key": "token",
							"value": "eyJhbGciOiJIUzI1NiIsInR5cCI6IkpXVCJ9.eyJpZCI6IjY0N2FlOGZiN2FkYTliYjgzM2ZlOGU0YSIsImlzQWRtaW4iOnRydWUsImVtYWlsIjoiY3Jvc3NAZ21haWwuY29tIiwiaWF0IjoxNjg1OTI3ODg3fQ.oSU7MRWvrs2QiTmOa9oRMXQ0H20FIfwYVBvuNBhgOZQ",
							"type": "string"
						}
					]
				},
				"method": "POST",
				"header": [],
				"body": {
					"mode": "raw",
					"raw": "{\r\n    \"name\": \"JavaScript\",\r\n    \"description\": \"Intro to JS algo\",\r\n    \"price\": 5999,\r\n    \"slots\": 30,\r\n    \"isActive\": true\r\n}",
					"options": {
						"raw": {
							"language": "json"
						}
					}
				},
				"url": {
					"raw": "localhost:4001/courses/addCourse",
					"host": [
						"localhost"
					],
					"port": "4001",
					"path": [
						"courses",
						"addCourse"
					]
				}
			},
			"response": []
		},
		{
			"name": "GET getAllCourses (admin only)",
			"request": {
				"auth": {
					"type": "bearer",
					"bearer": [
						{
							"key": "token",
							"value": "eyJhbGciOiJIUzI1NiIsInR5cCI6IkpXVCJ9.eyJpZCI6IjY0N2FlOGZiN2FkYTliYjgzM2ZlOGU0YSIsImlzQWRtaW4iOnRydWUsImVtYWlsIjoiY3Jvc3NAZ21haWwuY29tIiwiaWF0IjoxNjg1OTI3ODg3fQ.oSU7MRWvrs2QiTmOa9oRMXQ0H20FIfwYVBvuNBhgOZQ",
							"type": "string"
						}
					]
				},
				"method": "GET",
				"header": [],
				"url": {
					"raw": "localhost:4001/courses/",
					"host": [
						"localhost"
					],
					"port": "4001",
					"path": [
						"courses",
						""
					]
				}
			},
			"response": []
		},
		{
			"name": "GET getAllActiveCourses",
			"request": {
				"method": "GET",
				"header": [],
				"url": {
					"raw": "localhost:4001/courses/activeCourses",
					"host": [
						"localhost"
					],
					"port": "4001",
					"path": [
						"courses",
						"activeCourses"
					]
				}
			},
			"response": []
		},
		{
			"name": "GET getCourse",
			"protocolProfileBehavior": {
				"disableBodyPruning": true
			},
			"request": {
				"auth": {
					"type": "bearer",
					"bearer": [
						{
							"key": "token",
							"value": "eyJhbGciOiJIUzI1NiIsInR5cCI6IkpXVCJ9.eyJpZCI6IjY0N2FlOGZiN2FkYTliYjgzM2ZlOGU0YSIsImlzQWRtaW4iOnRydWUsImVtYWlsIjoiY3Jvc3NAZ21haWwuY29tIiwiaWF0IjoxNjg1OTI3ODg3fQ.oSU7MRWvrs2QiTmOa9oRMXQ0H20FIfwYVBvuNBhgOZQ",
							"type": "string"
						}
					]
				},
				"method": "GET",
				"header": [],
				"body": {
					"mode": "raw",
					"raw": "{\r\n    \"id\": \"647d37d9490cc6896023c58a\"\r\n}",
					"options": {
						"raw": {
							"language": "json"
						}
					}
				},
				"url": {
					"raw": "localhost:4001/courses/",
					"host": [
						"localhost"
					],
					"port": "4001",
					"path": [
						"courses",
						""
					]
				}
			},
			"response": []
		},
		{
			"name": "PATCH updateCourse",
			"request": {
				"auth": {
					"type": "bearer",
					"bearer": [
						{
							"key": "token",
							"value": "eyJhbGciOiJIUzI1NiIsInR5cCI6IkpXVCJ9.eyJpZCI6IjY0N2FlOGZiN2FkYTliYjgzM2ZlOGU0YSIsImlzQWRtaW4iOnRydWUsImVtYWlsIjoiY3Jvc3NAZ21haWwuY29tIiwiaWF0IjoxNjg1OTI3ODg3fQ.oSU7MRWvrs2QiTmOa9oRMXQ0H20FIfwYVBvuNBhgOZQ",
							"type": "string"
						}
					]
				},
				"method": "PATCH",
				"header": [],
				"body": {
					"mode": "raw",
					"raw": "{\r\n    \"name\": \"Intro to Javascript\",\r\n    \"description\": \"intro to JS and advance algo\",\r\n    \"price\": 9999\r\n}",
					"options": {
						"raw": {
							"language": "json"
						}
					}
				},
				"url": {
					"raw": "localhost:4001/courses/647d37d9490cc6896023c58a",
					"host": [
						"localhost"
					],
					"port": "4001",
					"path": [
						"courses",
						"647d37d9490cc6896023c58a"
					]
				}
			},
			"response": []
		},
		{
			"name": "PATCH archiveCourse",
			"request": {
				"auth": {
					"type": "bearer",
					"bearer": [
						{
							"key": "token",
							"value": "eyJhbGciOiJIUzI1NiIsInR5cCI6IkpXVCJ9.eyJpZCI6IjY0N2FlOGZiN2FkYTliYjgzM2ZlOGU0YSIsImlzQWRtaW4iOnRydWUsImVtYWlsIjoiY3Jvc3NAZ21haWwuY29tIiwiaWF0IjoxNjg1OTI3ODg3fQ.oSU7MRWvrs2QiTmOa9oRMXQ0H20FIfwYVBvuNBhgOZQ",
							"type": "string"
						}
					]
				},
				"method": "PATCH",
				"header": [],
				"body": {
					"mode": "raw",
					"raw": "{\r\n    \"isActive\": \"true\"\r\n}",
					"options": {
						"raw": {
							"language": "json"
						}
					}
				},
				"url": {
					"raw": "localhost:4001/courses/647d37d9490cc6896023c58a",
					"host": [
						"localhost"
					],
					"port": "4001",
					"path": [
						"courses",
						"647d37d9490cc6896023c58a"
					]
				}
			},
			"response": []
		}
	]
}